{
  "extends": ["tslint:recommended", "tslint-react", "tslint-config-prettier"],
  "linterOptions": {
    "exclude": [
      "config/**/*.js",
      "node_modules/**/*.ts",
      "coverage/lcov-report/*.js"
    ]
  },
  "rules": {
    "no-parameter-reassignment": { "severity": "warning" },
    "no-any": { "severity": "warning" },
    "prefer-const": { "severity": "warning" },
    "no-console": false,
    "no-empty": { "severity": "warning" },
    "jsx-self-close": { "severity": "warning" },
    "ordered-imports": false,
    "jsx-boolean-value": false,
    "member-ordering": false,
    "object-literal-sort-keys": false,
    "no-any": false,
    "forin": false,
    "member-access": false,
    "jsx-no-lambda": false,
    "no-shadowed-variable": false,
    "no-string-literal": false,
    "no-unused-expression": false,
    "no-debugger": false,
    "variable-name": ["allow-leading-underscore"],
    "max-classes-per-file": false
  }

}
